#define icon_width 79
#define icon_height 55
static char icon_bits[] = {
 0xff,0xff,0xff,0xff,0xff,0xff,0xff,0xff,0xff,0xff,0xff,0xff,0xff,0xff,0xff,
 0xff,0xff,0xff,0xff,0xff,0x03,0x03,0x06,0x0c,0x00,0x3c,0x00,0xf0,0x00,0xf0,
 0x03,0x03,0x06,0x0c,0x00,0x3c,0x00,0xf0,0x00,0xf0,0x03,0x03,0x06,0x0c,0x00,
 0x30,0x00,0x30,0x00,0xc0,0x03,0x03,0x06,0x0c,0x00,0x30,0x00,0x30,0x00,0xc0,
 0x03,0x03,0x06,0x0c,0x00,0x30,0x00,0x30,0x00,0xc0,0x03,0x03,0x06,0x0c,0x18,
 0x30,0x00,0x30,0x60,0xc0,0x03,0x03,0x06,0x0c,0x18,0x30,0x00,0x30,0x60,0xc0,
 0x03,0x03,0x06,0x0c,0x18,0x30,0x00,0x30,0x60,0xc0,0x03,0x03,0x06,0x0c,0x18,
 0x30,0xe0,0x3f,0x60,0xc0,0x03,0x03,0x06,0x0c,0x18,0x30,0xe0,0x3f,0x60,0xc0,
 0x03,0x03,0x06,0x0c,0x18,0x30,0x00,0x30,0x60,0xc0,0x03,0x03,0x06,0x0c,0x18,
 0x30,0x00,0x30,0x60,0xc0,0x03,0x03,0x06,0x0c,0x18,0x30,0x00,0x30,0x60,0xc0,
 0x03,0x03,0x06,0x0c,0x18,0x30,0xe0,0x3f,0x60,0xc0,0x03,0x03,0x06,0x0c,0x18,
 0x30,0xe0,0x3f,0x60,0xc0,0x03,0x03,0x06,0x0c,0x18,0x30,0xe0,0x3f,0x60,0xc0,
 0x03,0x00,0x06,0x0c,0x18,0x30,0x00,0x30,0x60,0xc0,0x03,0x00,0x06,0x0c,0x18,
 0x30,0x00,0x30,0x60,0xc0,0x0f,0x80,0x07,0x0c,0x00,0x30,0x00,0x30,0x00,0xc0,
 0x0f,0x80,0x07,0x0c,0x00,0x30,0x00,0x30,0x00,0xc0,0x0f,0x80,0x07,0x0c,0x00,
 0x30,0x00,0x30,0x00,0xc0,0x3f,0xe0,0x07,0x0c,0x00,0x3c,0x00,0xf0,0x00,0xf0,
 0x3f,0xe0,0x07,0x0c,0x00,0x3c,0x00,0xf0,0x00,0xf0,0x3f,0xe0,0x07,0x0c,0x00,
 0x3c,0x00,0xf0,0x00,0xf0,0xff,0xff,0xff,0xff,0xff,0xff,0xff,0xff,0xff,0xff,
 0xff,0xff,0xff,0xff,0xff,0xff,0xff,0xff,0xff,0xff,0x03,0x00,0x00,0x00,0x00,
 0x00,0x00,0x00,0x00,0xc0,0x03,0x00,0x00,0x00,0x00,0x00,0x00,0x00,0x00,0xc0,
 0xc3,0xff,0x3f,0xff,0x1f,0x3f,0x7e,0xfc,0xff,0xc1,0xc3,0xff,0x3f,0xff,0x1f,
 0x3f,0x7e,0xfc,0xff,0xc1,0xc3,0xff,0x3f,0xff,0x1f,0x3f,0x7e,0xfc,0xff,0xc1,
 0xc3,0xff,0x3f,0xff,0x1f,0x3f,0x7e,0xfc,0xff,0xc1,0xc3,0xff,0x3f,0xff,0x1f,
 0x3f,0x7e,0xfc,0xff,0xc1,0xc3,0xff,0x3f,0xff,0x1f,0x3f,0x7e,0xfc,0xff,0xc1,
 0xc3,0xff,0x3f,0xff,0x1f,0x3f,0x7e,0xfc,0xff,0xc1,0xc3,0xff,0x3f,0xff,0x1f,
 0x3f,0x7e,0xfc,0xff,0xc1,0x03,0xfc,0x01,0x7f,0x00,0xf0,0x07,0xc0,0x1f,0xc0,
 0x03,0xfc,0x01,0x7f,0x00,0xf0,0x07,0xc0,0x1f,0xc0,0x03,0xfc,0x01,0x7f,0x00,
 0xf0,0x07,0xc0,0x1f,0xc0,0x03,0xfc,0x01,0xff,0x1f,0xf0,0x07,0xc0,0x1f,0xc0,
 0x03,0xfc,0x01,0xff,0x1f,0xf0,0x07,0xc0,0x1f,0xc0,0x03,0xfc,0x01,0xff,0x1f,
 0xf0,0x07,0xc0,0x1f,0xc0,0x03,0xfc,0x01,0x7f,0x00,0xff,0x7f,0xc0,0x1f,0xc0,
 0x03,0xfc,0x01,0x7f,0x00,0xff,0x7f,0xc0,0x1f,0xc0,0x03,0xfc,0x01,0xff,0x1f,
 0xff,0x7f,0xc0,0x1f,0xc0,0x03,0xfc,0x01,0xff,0x1f,0xff,0x7f,0xc0,0x1f,0xc0,
 0x03,0xfc,0x01,0xff,0x1f,0xff,0x7f,0xc0,0x1f,0xc0,0x03,0xfc,0x01,0xff,0x1f,
 0x3f,0x7e,0xc0,0x1f,0xc0,0x03,0xfc,0x01,0xff,0x1f,0x3f,0x7e,0xc0,0x1f,0xc0,
 0x03,0xfc,0x01,0xff,0x1f,0x3f,0x7e,0xc0,0x1f,0xc0,0x03,0xfc,0x01,0xff,0x1f,
 0x3f,0x7e,0xc0,0x1f,0xc0,0x03,0xfc,0x01,0xff,0x1f,0x3f,0x7e,0xc0,0x1f,0xc0,
 0x03,0x00,0x00,0x00,0x00,0x00,0x00,0x00,0x00,0xc0
};
