#ifndef HELP_HEADER
"        \6AleVT Online Help System       ",
"  \22`p0`0    p `0pppp                    ",
"\4\35\22\177 \177j5`p  \177 j5 j5           \7Version \34",
"\4\35\22\177,\177j5\177.! +t>! j5           \7  1.4.6 \34",
"  \22# #\42!\42#   \42   \42!                     ",
#else
HELP_HEADER
#endif
"                                        ",
"\6\15Warning:                              ",
"\6\15Warning:                              ",
"\24 ####################################  ",
"\6 The bttv-driver (v0.5.22) is buggy.   ",
"\6 Don't try to run AleVT together with  ",
"\6 anything that grabs video data from   ",
"\6 /dev/video.  The grabber will stop    ",
"\6 running and some time later the       ",
"\6 kernel will crash due to an out of    ",
"\6 memory condition.                     ",
"\6                                       ",
"\6 It seems to work with programs that   ",
"\6 just use video overlay.  Xawtv in     ",
"\6 overlay mode works just fine.         ",
"\24 pppppppppppppppppppppppppppppppppppp  ",
"                                        ",
"                                        ",
"\4\35\7Back 901     Index 900    Next 903  \34",
"\1Page 100 \2Page 200 \3Page 300 \6Page 400\34",
